%YAML 1.1
%TAG !u! tag:unity3d.com,2011:
--- !u!1045 &1
EditorBuildSettings:
  m_ObjectHideFlags: 0
  serializedVersion: 2
  m_Scenes:
  - enabled: 1
    path: Assets/Scenes/MENU.unity
    guid: 943c950a7b90dc048a39c57308b06b0f
  - enabled: 1
    path: Assets/Scenes/SAMPLE_SCENE.unity
    guid: 9c4fdd6109e3544498edb8f656f0ea1c
  - enabled: 1
    path: Assets/Scenes/CREDITS.unity
    guid: e2619cef72e618348bf5dfcd8e289d08
  m_configObjects: {}
